﻿{
	name:"Dra Grimberg",
	level:-10,
	type:"autoeval",
	initial:true,
	dialogTree:[
		{index:0,
			moods:[
				{ 	"mood":"neutral",
					"expre":"neutra",
					"prompt":"#Manu, el vórtice se descontrola, ¡encuentra la salida de la biblioteca! ¿Podrás hacerlo?",
					"final":true,
					replies:[
						{emoVal:1,exit:true,goTo:0,text:"Claro que sí!",rType:"AUTOEFICACIA",rSType:"JUICIO"},
						{emoVal:0,exit:true,goTo:0,text:"¿La verdad? ¡No sé!",rType:"AUTOEFICACIA",rSType:"JUICIO"},
						{emoVal:-1,exit:true,goTo:0,text:"Lo veo dificilísimo.",rType:"AUTOEFICACIA",rSType:"JUICIO"}]
				}
			]
		}
	]
}
