﻿{
	name:"Dra Grimberg",
	level:4,
	type:"autoeval",
	initial:true,
	dialogTree:[
		{index:0,
			moods:[
				{ 	"mood":"neutral",
					"expre":"neutra",
					"prompt":"A partir de esta área habrá derrames de plasma. Seguramente encontrarás pronto un dispositivo antiplasma. ¿Creés que podrás limpiar los derrames para seguir adelante?",
					"final":true,
					replies:[
						{emoVal:1,exit:true,goTo:0,text:"¡Seguro, doctora!",rType:"AUTOEFICACIA",rSType:"JUICIO"},
						{emoVal:0,exit:true,goTo:0,text:"Haré lo posible.",rType:"AUTOEFICACIA",rSType:"JUICIO"},
						{emoVal:-1,exit:true,goTo:0,text:"No creo que pueda.",rType:"AUTOEFICACIA",rSType:"JUICIO"}]
				}
			]
		}

	]
}
