﻿{
	"name": "Dra Grimberg",
	"level": 4,
	"type": "autoeval",
	"initial": true,
	"dialogTree": [
		{
			"index": 0,
			"moods": [
				{
					"mood": "neutral",
					"expre": "neutra",
					"prompt": "La superposición de dimensiones generó una zona laberíntica. ¿Te parece que podrás salir de ella?",
					"final": false,
					"replies": [
						{
							"emoVal": 1,
							"exit": true,
							"goTo": 1,
							"text": "Claro que sí!",
							"rType": "AUTOEFICACIA",
							"rSType": "JUICIO"
						},
						{
							"emoVal": 0,
							"exit": true,
							"goTo": 1,
							"text": "¿La verdad? ¡No sé!",
							"rType": "AUTOEFICACIA",
							"rSType": "JUICIO"
						},
						{
							"emoVal": -1,
							"exit": true,
							"goTo": 1,
							"text": "Lo veo dificilísimo",
							"rType": "AUTOEFICACIA",
							"rSType": "JUICIO"
						}
					]
				}
			]
		},
		{
			"index": 1,
			"moods": [
				{
					"mood": "neutral",
					"expre": "concentrada",
					"prompt": "Hola!, veo que se les complica pasar por esta zona, les abrí un portal para que lleguen al otro lado. ¿Lo quieren usar?",
					"final": true,
					"replies": [
						{ "emoVal": 0, "exit": true, "goTo": 1, "text": "¡Esta bien!", "move": 1 },
						{ "emoVal": 0, "exit": true, "goTo": 1, "text": "¡No, nosotros podemos pasarlo!", "move": 0 }
					]
				}
			]
		}
	]
}
