﻿{
	"name": "Mark",
	"level": 3,
	"type": "et",
	"dialogTree": [
		{
			"index": 0,
			"moods": [
				{
					"mood": "neutral",
					"expre": "ansioso",
					"prompt": "¡¿Vieron la cantidad de incendios que hay?!",
					"final": false,
					"replies": [
						{
							"emoVal": 1,
							"exit": false,
							"goTo": 1,
							"text": "El bombero dijo que ellos se ocuparán por ahora y le creemos.",
							"rType": "COLABORATIVO",
							"rSType": "CONFIANZA",
							"indicVal": "sí"
						},
						{
							"emoVal": 0,
							"exit": false,
							"goTo": 1,
							"text": "No sabemos si el bombero dijo la verdad pero nuestra prioridad son los portales",
							"rType": "COLABORATIVO",
							"rSType": "CONFIANZA",
							"indicVal": "moderado"
						},
						{
							"emoVal": -1,
							"exit": false,
							"goTo": 1,
							"text": "Seguro que los bomberos no los apagan, pero ya fue...",
							"rType": "COLABORATIVO",
							"rSType": "CONFIANZA",
							"indicVal": "no"
						}
					]
				}
			]
		},
		{
			"index": 1,
			"moods": [
				{
					"mood": "negative",
					"expre": "irritado",
					"prompt": "Opino que igual ustedes deberían apagar al menos tres incendios.",
					"final": false,
					"replies": [{ "emoVal": 0, "exit": false, "goTo": 3, "text": "Repito, no podemos hacer nada." }]
				},
				{
					"mood": "positive",
					"expre": "irritado",
					"prompt": "Opino que igual deberían apagar al menos tres incendios.",
					"final": false,
					"replies": [
						{ "emoVal": 0, "exit": false, "goTo": 3, "text": "Ellos mismos nos dijeron que nos despreocupemos." }
					]
				},
				{
					"mood": "neutral",
					"expre": "irritado",
					"prompt": "Opino que igual deberían apagar al menos tres incendios.",
					"final": false,
					"replies": [{ "emoVal": 0, "exit": false, "goTo": 3, "text": "Bueno, capaz que tenés razón." }]
				}
			]
		},
		{
			"index": 2,
			"moods": [
				{
					"mood": "neutral",
					"expre": "irritado",
					"prompt": "Insisto, deberían apagar al menos tres incendios, pero ustedes hagan lo que les parezca.",
					"final": false,
					"replies": [{ "emoVal": 0, "exit": true, "goTo": 2, "text": "Eso haremos." }]
				}
			]
		},
		{
			"index": 3,
			"moods": [
				{
					"mood": "neutral",
					"expre": "agradecido",
					"prompt": "Mientras tanto, cantaré alabanzas para ustedes llevará su tiempo pero son realmente hermosas.",
					"final": true,
					"replies": [
						{
							"emoVal": 0,
							"exit": true,
							"goTo": 0,
							"text": "Necesitamos seguir con lo nuestro, ¡hasta luego!",
							"rType": "ASERTIVIDAD",
							"rSType": "NEGARSE",
							"indicVal": "sí"
						},
						{
							"emoVal": 0,
							"exit": true,
							"goTo": 0,
							"text": "¡Nos hicieron perder un montón de tiempo, pesados! ¡Chau!",
							"rType": "ASERTIVIDAD",
							"rSType": "NEGARSE",
							"indicVal": "sí - agresivo"
						},
						{
							"emoVal": 0,
							"exit": false,
							"goTo": 4,
							"text": "Somos todo oídos.",
							"rType": "ASERTIVIDAD",
							"rSType": "NEGARSE",
							"indicVal": "no"
						}
					]
				}
			]
		},
		{
			"index": 4,
			"moods": [
				{
					"mood": "neutral",
					"expre": "excitado",
					"prompt": "Looooo, roliloooooooo...",
					"final": true,
					"replies": [
						{ "emoVal": 0, "exit": false, "goTo": 5, "text": "Conmovedor..." },
						{ "emoVal": 0, "exit": true, "goTo": 10, "text": "Salir" }
					]
				}
			]
		},
		{
			"index": 5,
			"moods": [
				{
					"mood": "neutral",
					"expre": "excitado",
					"prompt": "Liiiiiii, ralaliiiiiiiiiiii...",
					"final": true,
					"replies": [
						{ "emoVal": 0, "exit": false, "goTo": 6, "text": "Bien ahí..." },
						{ "emoVal": 0, "exit": true, "goTo": 10, "text": "Salir" }
					]
				}
			]
		},
		{
			"index": 6,
			"moods": [
				{
					"mood": "neutral",
					"expre": "excitado",
					"prompt": "Po, poropopóóóóóoóó...",
					"final": true,
					"replies": [
						{ "emoVal": 0, "exit": false, "goTo": 7, "text": "Esa melodía me suena de algún lado." },
						{ "emoVal": 0, "exit": true, "goTo": 10, "text": "Salir" }
					]
				}
			]
		},
		{
			"index": 7,
			"moods": [
				{
					"mood": "neutral",
					"expre": "excitado",
					"prompt": "Cuaaaaa, lalán truliiiiip...",
					"final": true,
					"replies": [
						{ "emoVal": 0, "exit": false, "goTo": 8, "text": "¿Una que sepamos todos?" },
						{ "emoVal": 0, "exit": true, "goTo": 10, "text": "Salir" }
					]
				}
			]
		},
		{
			"index": 8,
			"moods": [
				{
					"mood": "neutral",
					"expre": "excitado",
					"prompt": "Oh, singarinlááááááá...",
					"final": true,
					"replies": [
						{ "emoVal": 0, "exit": false, "goTo": 9, "text": "¡Qué voz! ¡Y qué insistencia!" },
						{ "emoVal": 0, "exit": true, "goTo": 10, "text": "Salir" }
					]
				}
			]
		},
		{
			"index": 9,
			"moods": [
				{
					"mood": "neutral",
					"expre": "excitado",
					"prompt": "Puloyarún, quetelacuáááá...",
					"final": true,
					"replies": [
						{ "emoVal": 0, "exit": false, "goTo": 10, "text": "Creo que ya podemos darnos por alabados, ¡gracias!" }
					]
				}
			]
		},
		{
			"index": 10,
			"moods": [
				{
					"mood": "neutral",
					"expre": "alegre",
					"prompt": "Ha sido un placer conocerlos, heroicos seres.",
					"final": true,
					"replies": [{ "emoVal": 0, "exit": true, "goTo": 10, "text": "Igualmente, ¡hasta luego!" }]
				}
			]
		}
	]
}
